{
  "AWSTemplateFormatVersion": "2010-09-09",
  "Description": "Lab 1 Web Layer Template",
  "Parameters": {
    "EnvironmentType": {
      "Description": "Environment Type",
      "Type": "String",
      "Default": "dev",
      "AllowedValues": [
        "dev",
        "prod"
      ]
    }
  },
  "Mappings": {
    "EnvironmentMap": {
      "prod": {
        "VpcId": "vpc-7e0f831a",
        "SubnetId": "subnet-76fd0700",
        "InstanceType": "t2.micro"
      },
      "dev": {
        "VpcId": "vpc-ee73388b",
        "SubnetId": "subnet-3ce3b94b",
        "InstanceType": "t2.micro"
      }
    },
    "RegionMap": {
      "us-east-1": {
          "AMI": "ami-60b6c60a",
          "KeyPair": "dhiraj.narwani.prod"
      },
      "eu-west-1": {
          "AMI": "ami-bff32ccc",
          "KeyPair": "dhiraj.narwani"
      }
    }
  },
  "Resources": {
    "EC2SG": {
      "Type": "AWS::EC2::SecurityGroup",
      "Properties": {
        "VpcId": {"Fn::FindInMap": [ "EnvironmentMap", {"Ref": "EnvironmentType"}, "VpcId"] },
        "GroupDescription": "EC2 Instance SG",
        "SecurityGroupIngress": [
          {
            "IpProtocol": "tcp",
            "FromPort": "22",
            "ToPort": "22",
            "CidrIp": "80.169.207.10/32"
          },
          {
            "IpProtocol": "tcp",
            "FromPort": "80",
            "ToPort": "80",
            "CidrIp": "80.169.207.10/32"
          }
        ]
      }
    },
    "EC2Instance": {
      "Type": "AWS::EC2::Instance",
      "Properties": {
        "ImageId": { "Fn::FindInMap": [ "RegionMap", {"Ref": "AWS::Region"}, "AMI" ]},
        "InstanceType": { "Fn::FindInMap" : [ "EnvironmentMap", {"Ref": "EnvironmentType"}, "InstanceType"]},
        "NetworkInterfaces": [
          {
                "AssociatePublicIpAddress": true,
                "DeleteOnTermination": true,
                "DeviceIndex": "0",
                "SubnetId": {"Fn::FindInMap": [ "EnvironmentMap", {"Ref": "EnvironmentType"}, "SubnetId"] },
                "GroupSet": [
                    {"Ref": "EC2SG"}
                ]
          }
        ],
        "Tags": [
          {
            "Key": "Name",
            "Value": "EC2 Instance"
          },
          {
            "Key": "Owner",
            "Value": "Dhiraj Narwani"
          }
        ],
        "KeyName" : { "Fn::FindInMap": [ "RegionMap", {"Ref": "AWS::Region"}, "KeyPair" ]}
      }
    }
  }
}
